{
  "data": [
    { "title": "Compton F.", "avatar": "assets/img/img1.png" },
    { "title": "Rasmussen W.", "avatar": "assets/img/img2.png" },
    { "title": "Leonard H.", "avatar": "assets/img/img3.png" },
    { "title": "Welch W.", "avatar": "assets/img/img4.png" },
    { "title": "Gutierrez W.", "avatar": "assets/img/img5.png" },
    { "title": "Lowery M.", "avatar": "assets/img/img6.png" },
    { "title": "Haley B.", "avatar": "assets/img/img7.png" },
    { "title": "Glenn P.", "avatar": "assets/img/img8.png" },
    { "title": "Graham M.", "avatar": "assets/img/img9.png" },
    { "title": "Stephenson W.", "avatar": "assets/img/img10.png" },
    { "title": "Santiago B.", "avatar": "assets/img/img11.png" },
    { "title": "Kemp H.", "avatar": "assets/img/img12.png" },
    { "title": "Hensley C.", "avatar": "assets/img/img13.png" },
    { "title": "Morgan F.", "avatar": "assets/img/img14.png" },
    { "title": "Cherry G.", "avatar": "assets/img/img15.png" }
  ]
}
